%YAML 1.1
%TAG !u! tag:unity3d.com,2011:
--- !u!114 &11400000
MonoBehaviour:
  m_ObjectHideFlags: 0
  m_CorrespondingSourceObject: {fileID: 0}
  m_PrefabInstance: {fileID: 0}
  m_PrefabAsset: {fileID: 0}
  m_GameObject: {fileID: 0}
  m_Enabled: 1
  m_EditorHideFlags: 0
  m_Script: {fileID: 11500000, guid: eea419c42a981f34a9adf0a7e12a6f17, type: 3}
  m_Name: SOCannonInstaller
  m_EditorClassIdentifier: 
  _settings: {fileID: 11400000, guid: 5d372b330bdca3c4eb6fcee25d45f781, type: 2}
  _assets: {fileID: 11400000, guid: c92a4ff312ec68c439f6aca446ec434a, type: 2}
